…
    # remove the copy of the dataset
    rm(df2)

# Customer Behavior Analysis

## Which pizza is the favorite of customers (most ordered pizza)?

    df %>% group_by(pizza_name) %>% summarise(pizzas_ordered = sum(quantity)) %>% arrange(-pizzas_ordered)

    ## # A tibble: 32 × 2
    ##    pizza_name         pizzas_ordered
    ##    <chr>                       <dbl>
    ##  1 classic deluxe               2453
    ##  2 barbecue chicken             2432
    ##  3 hawaiian                     2422
    ##  4 pepperoni                    2418
    ##  5 thai chicken                 2371
    ##  6 california chicken           2370
    ##  7 sicilian                     1938
    ##  8 spicy italian                1924
    ##  9 southwest chicken            1917
    ## 10 big meat                     1914
    ## # ℹ 22 more rows
…
